#(1) time (2) halo ID (3) descendant halo ID (4) halo mass [Msun/h] (5) halo radius [kpc/h] (6) x [Mpc/h] (7) y [Mpc/h] (8) z [Mpc/h]
0.403926 124531 122497 3.762800e+12 3.775180e+02 1.135893e+02 1.568431e+01 8.730186e+01
0.425820 122497 138438 3.885200e+12 3.801720e+02 1.139117e+02 1.568713e+01 8.749800e+01
0.448076 138438 138496 4.129900e+12 3.864350e+02 1.142448e+02 1.564671e+01 8.769559e+01
0.470738 138496 138058 5.486200e+12 4.229370e+02 1.146465e+02 1.567606e+01 8.792712e+01
0.493856 138058 157 6.047000e+12 4.347930e+02 1.150656e+02 1.565598e+01 8.822011e+01
0.517484 157 398759 5.781900e+12 4.261160e+02 1.155525e+02 1.550870e+01 8.851840e+01
0.541680 398759 135164 5.690100e+12 4.214580e+02 1.161218e+02 1.535675e+01 8.882064e+01
0.566511 135164 133016 4.874300e+12 3.978250e+02 1.167374e+02 1.511709e+01 8.909286e+01
0.592052 133016 134878 4.792800e+12 3.929820e+02 1.174863e+02 1.476105e+01 8.934420e+01
0.618385 134878 134129 3.946400e+12 3.657090e+02 1.183831e+02 1.407996e+01 8.971075e+01
0.645603 134129 133347 3.181600e+12 3.377480e+02 1.187699e+02 1.341005e+01 9.001769e+01
0.673814 133347 266424 2.498400e+12 3.090090e+02 1.188992e+02 1.319107e+01 9.021532e+01
0.703136 266424 132284 1.529600e+12 2.600330e+02 1.188670e+02 1.326360e+01 9.036255e+01
0.733709 132284 132238 1.376600e+12 2.486200e+02 1.186874e+02 1.358117e+01 9.031821e+01
0.765689 132238 130456 3.329400e+14 1.532709e+03 1.183210e+02 1.365241e+01 9.024018e+01
0.799261 130456 129648 3.448500e+14 1.533072e+03 1.183353e+02 1.353659e+01 9.036490e+01
0.834638 129648 129219 3.568600e+14 1.531406e+03 1.183930e+02 1.341247e+01 9.049863e+01
0.872071 129219 253350 3.590700e+14 1.513792e+03 1.184450e+02 1.328058e+01 9.063194e+01
0.911860 253350 126534 3.611800e+14 1.494291e+03 1.184741e+02 1.319240e+01 9.074191e+01
0.954359 126534 124204 3.574200e+14 1.464874e+03 1.185057e+02 1.307915e+01 9.087533e+01
1.000000 124204 -1 3.572200e+14 1.438366e+03 1.185252e+02 1.297475e+01 9.105789e+01
0.403926 124532 122498 3.569100e+11 1.721680e+02 1.144019e+02 1.563206e+01 8.758984e+01
0.425820 122498 138444 3.773000e+11 1.747450e+02 1.147762e+02 1.552001e+01 8.762997e+01
0.448076 138444 138499 3.365100e+11 1.675310e+02 1.151503e+02 1.544995e+01 8.770223e+01
0.470738 138499 138066 3.365100e+11 1.667960e+02 1.155698e+02 1.539157e+01 8.785825e+01
0.493856 138066 160 3.059200e+11 1.608070e+02 1.159136e+02 1.537385e+01 8.803648e+01
0.517484 160 398734 2.855300e+11 1.563340e+02 1.162757e+02 1.531950e+01 8.829162e+01
0.541680 398734 135165 3.059200e+11 1.590680e+02 1.166196e+02 1.522365e+01 8.859373e+01
0.566511 135165 133018 2.651300e+11 1.507330e+02 1.170956e+02 1.507003e+01 8.895219e+01
0.592052 133018 134878 2.141400e+11 1.394480e+02 1.175440e+02 1.476055e+01 8.937466e+01
0.618385 134878 134129 3.946400e+12 3.657090e+02 1.183831e+02 1.407996e+01 8.971075e+01
0.645603 134129 133347 3.181600e+12 3.377480e+02 1.187699e+02 1.341005e+01 9.001769e+01
0.673814 133347 266424 2.498400e+12 3.090090e+02 1.188992e+02 1.319107e+01 9.021532e+01
0.703136 266424 132284 1.529600e+12 2.600330e+02 1.188670e+02 1.326360e+01 9.036255e+01
0.733709 132284 132238 1.376600e+12 2.486200e+02 1.186874e+02 1.358117e+01 9.031821e+01
0.765689 132238 130456 3.329400e+14 1.532709e+03 1.183210e+02 1.365241e+01 9.024018e+01
0.799261 130456 129648 3.448500e+14 1.533072e+03 1.183353e+02 1.353659e+01 9.036490e+01
0.834638 129648 129219 3.568600e+14 1.531406e+03 1.183930e+02 1.341247e+01 9.049863e+01
0.872071 129219 253350 3.590700e+14 1.513792e+03 1.184450e+02 1.328058e+01 9.063194e+01
0.911860 253350 126534 3.611800e+14 1.494291e+03 1.184741e+02 1.319240e+01 9.074191e+01
0.954359 126534 124204 3.574200e+14 1.464874e+03 1.185057e+02 1.307915e+01 9.087533e+01
1.000000 124204 -1 3.572200e+14 1.438366e+03 1.185252e+02 1.297475e+01 9.105789e+01
0.403926 124533 122499 2.651300e+11 1.559260e+02 1.147724e+02 1.541424e+01 8.762475e+01
0.425820 122499 138445 4.690800e+11 1.878990e+02 1.150880e+02 1.574447e+01 8.784963e+01
0.448076 138445 138497 4.690800e+11 1.871450e+02 1.154456e+02 1.599411e+01 8.807797e+01
0.470738 138497 138068 2.345400e+11 1.478850e+02 1.159015e+02 1.618772e+01 8.833521e+01
0.493856 138068 64219 2.039500e+11 1.404780e+02 1.162383e+02 1.630286e+01 8.858344e+01
0.517484 64219 398761 1.733600e+11 1.323780e+02 1.166051e+02 1.630202e+01 8.884831e+01
0.541680 398761 135166 1.631600e+11 1.289980e+02 1.169618e+02 1.621325e+01 8.908457e+01
0.566511 135166 133019 1.529600e+11 1.254820e+02 1.173899e+02 1.596969e+01 8.933047e+01
0.592052 133019 134845 1.223700e+11 1.157180e+02 1.178136e+02 1.556528e+01 8.954557e+01
0.618385 134845 134096 1.325700e+11 1.179990e+02 1.182071e+02 1.503273e+01 8.973355e+01
0.645603 134096 133354 3.180100e+14 1.567438e+03 1.182434e+02 1.407106e+01 8.973604e+01
0.673814 133354 266427 3.248000e+14 1.565393e+03 1.183015e+02 1.397378e+01 8.984056e+01
0.703136 266427 132278 3.166000e+14 1.538169e+03 1.183674e+02 1.386206e+01 8.994374e+01
0.733709 132278 132238 3.226600e+14 1.532880e+03 1.183750e+02 1.374329e+01 9.008091e+01
0.765689 132238 130456 3.329400e+14 1.532709e+03 1.183210e+02 1.365241e+01 9.024018e+01
0.799261 130456 129648 3.448500e+14 1.533072e+03 1.183353e+02 1.353659e+01 9.036490e+01
0.834638 129648 129219 3.568600e+14 1.531406e+03 1.183930e+02 1.341247e+01 9.049863e+01
0.872071 129219 253350 3.590700e+14 1.513792e+03 1.184450e+02 1.328058e+01 9.063194e+01
0.911860 253350 126534 3.611800e+14 1.494291e+03 1.184741e+02 1.319240e+01 9.074191e+01
0.954359 126534 124204 3.574200e+14 1.464874e+03 1.185057e+02 1.307915e+01 9.087533e+01
1.000000 124204 -1 3.572200e+14 1.438366e+03 1.185252e+02 1.297475e+01 9.105789e+01
